[{"borrowedDate":"12/09/2022","dueDate":"10/02/2023","bookId":76,"readerId":72},
{"borrowedDate":"10/24/2022","dueDate":"02/24/2023","bookId":92,"readerId":49},
{"borrowedDate":"09/26/2023","dueDate":"10/03/2023","bookId":21,"readerId":5},
{"borrowedDate":"09/24/2023","dueDate":"10/01/2023","bookId":15,"readerId":51},
{"borrowedDate":"08/24/2023","dueDate":"08/31/2023","bookId":45,"readerId":81},
{"borrowedDate":"08/16/2023","dueDate":"08/23/2023","bookId":52,"readerId":62},
{"borrowedDate":"08/10/2023","dueDate":"08/17/2023","bookId":33,"readerId":52},
{"borrowedDate":"03/18/2023","dueDate":"04/04/2023","bookId":19,"readerId":86},
{"borrowedDate":"07/29/2023","dueDate":"08/05/2023","bookId":42,"readerId":50},
{"borrowedDate":"04/17/2023","dueDate":"04/24/2023","bookId":6,"readerId":37},
{"borrowedDate":"09/24/2023","dueDate":"10/01/2023","bookId":66,"readerId":40},
{"borrowedDate":"02/17/2023","dueDate":"03/06/2023","bookId":76,"readerId":57},
{"borrowedDate":"06/06/2023","dueDate":"08/13/2023","bookId":82,"readerId":38},
{"borrowedDate":"03/20/2023","dueDate":"10/17/2023","bookId":95,"readerId":74},
{"borrowedDate":"09/29/2023","dueDate":"10/06/2023","bookId":4,"readerId":69},
{"borrowedDate":"10/29/2022","dueDate":"05/28/2023","bookId":40,"readerId":81},
{"borrowedDate":"10/28/2022","dueDate":"08/12/2023","bookId":86,"readerId":74},
{"borrowedDate":"05/06/2023","dueDate":"05/13/2023","bookId":42,"readerId":39},
{"borrowedDate":"09/24/2023","dueDate":"10/01/2023","bookId":40,"readerId":100},
{"borrowedDate":"01/21/2023","dueDate":"01/28/2023","bookId":32,"readerId":62},
{"borrowedDate":"08/14/2023","dueDate":"08/21/2023","bookId":66,"readerId":52},
{"borrowedDate":"12/30/2022","dueDate":"01/06/2023","bookId":82,"readerId":60},
{"borrowedDate":"08/29/2023","dueDate":"09/05/2023","bookId":96,"readerId":78},
{"borrowedDate":"04/20/2023","dueDate":"08/20/2023","bookId":18,"readerId":47},
{"borrowedDate":"04/20/2023","dueDate":"04/27/2023","bookId":7,"readerId":61},
{"borrowedDate":"12/09/2022","dueDate":"05/08/2023","bookId":18,"readerId":1},
{"borrowedDate":"02/07/2023","dueDate":"05/02/2023","bookId":100,"readerId":65},
{"borrowedDate":"11/07/2022","dueDate":"07/09/2023","bookId":81,"readerId":21},
{"borrowedDate":"10/02/2023","dueDate":"10/09/2023","bookId":76,"readerId":4},
{"borrowedDate":"05/28/2023","dueDate":"06/18/2023","bookId":61,"readerId":100},
{"borrowedDate":"09/26/2023","dueDate":"10/03/2023","bookId":41,"readerId":85},
{"borrowedDate":"03/19/2023","dueDate":"04/15/2023","bookId":55,"readerId":48},
{"borrowedDate":"07/17/2023","dueDate":"07/24/2023","bookId":100,"readerId":82},
{"borrowedDate":"02/08/2023","dueDate":"08/03/2023","bookId":24,"readerId":84},
{"borrowedDate":"03/02/2023","dueDate":"03/28/2023","bookId":34,"readerId":65},
{"borrowedDate":"11/18/2022","dueDate":"11/25/2022","bookId":43,"readerId":7},
{"borrowedDate":"11/26/2022","dueDate":"04/19/2023","bookId":48,"readerId":53},
{"borrowedDate":"01/03/2023","dueDate":"01/10/2023","bookId":33,"readerId":30},
{"borrowedDate":"11/26/2022","dueDate":"01/20/2023","bookId":61,"readerId":34},
{"borrowedDate":"09/24/2023","dueDate":"10/01/2023","bookId":5,"readerId":14},
{"borrowedDate":"05/13/2023","dueDate":"05/20/2023","bookId":80,"readerId":100},
{"borrowedDate":"04/06/2023","dueDate":"04/13/2023","bookId":18,"readerId":8},
{"borrowedDate":"03/29/2023","dueDate":"07/26/2023","bookId":31,"readerId":57},
{"borrowedDate":"10/26/2022","dueDate":"07/23/2023","bookId":96,"readerId":88},
{"borrowedDate":"09/25/2023","dueDate":"10/02/2023","bookId":63,"readerId":92},
{"borrowedDate":"01/21/2023","dueDate":"01/28/2023","bookId":46,"readerId":27},
{"borrowedDate":"10/08/2023","dueDate":"10/15/2023","bookId":43,"readerId":77},
{"borrowedDate":"01/31/2023","dueDate":"08/10/2023","bookId":21,"readerId":13},
{"borrowedDate":"03/14/2023","dueDate":"03/21/2023","bookId":14,"readerId":88},
{"borrowedDate":"11/09/2022","dueDate":"07/27/2023","bookId":61,"readerId":86},
{"borrowedDate":"02/07/2023","dueDate":"02/14/2023","bookId":53,"readerId":34},
{"borrowedDate":"10/08/2023","dueDate":"10/15/2023","bookId":61,"readerId":52},
{"borrowedDate":"09/09/2023","dueDate":"09/16/2023","bookId":86,"readerId":93},
{"borrowedDate":"06/17/2023","dueDate":"06/24/2023","bookId":82,"readerId":48},
{"borrowedDate":"11/27/2022","dueDate":"12/04/2022","bookId":93,"readerId":62},
{"borrowedDate":"08/20/2023","dueDate":"08/27/2023","bookId":70,"readerId":60},
{"borrowedDate":"05/24/2023","dueDate":"08/12/2023","bookId":5,"readerId":44},
{"borrowedDate":"08/04/2023","dueDate":"08/11/2023","bookId":100,"readerId":36},
{"borrowedDate":"08/01/2023","dueDate":"09/21/2023","bookId":60,"readerId":51},
{"borrowedDate":"01/17/2023","dueDate":"01/24/2023","bookId":18,"readerId":99},
{"borrowedDate":"05/10/2023","dueDate":"05/16/2023","bookId":24,"readerId":2},
{"borrowedDate":"09/09/2023","dueDate":"09/16/2023","bookId":62,"readerId":97},
{"borrowedDate":"05/28/2023","dueDate":"05/31/2023","bookId":38,"readerId":27},
{"borrowedDate":"06/10/2023","dueDate":"09/11/2023","bookId":49,"readerId":83},
{"borrowedDate":"12/28/2022","dueDate":"09/05/2023","bookId":54,"readerId":88},
{"borrowedDate":"11/25/2022","dueDate":"07/14/2023","bookId":26,"readerId":33},
{"borrowedDate":"09/03/2023","dueDate":"09/10/2023","bookId":96,"readerId":78},
{"borrowedDate":"01/23/2023","dueDate":"05/03/2023","bookId":44,"readerId":75},
{"borrowedDate":"07/27/2023","dueDate":"08/03/2023","bookId":82,"readerId":37},
{"borrowedDate":"04/11/2023","dueDate":"04/18/2023","bookId":74,"readerId":73},
{"borrowedDate":"06/05/2023","dueDate":"06/12/2023","bookId":56,"readerId":46},
{"borrowedDate":"05/29/2023","dueDate":"06/05/2023","bookId":71,"readerId":91},
{"borrowedDate":"05/24/2023","dueDate":"08/05/2023","bookId":24,"readerId":2},
{"borrowedDate":"01/15/2023","dueDate":"02/23/2023","bookId":18,"readerId":38},
{"borrowedDate":"05/07/2023","dueDate":"08/23/2023","bookId":79,"readerId":33},
{"borrowedDate":"07/26/2023","dueDate":"08/02/2023","bookId":11,"readerId":30},
{"borrowedDate":"03/08/2023","dueDate":"03/15/2023","bookId":72,"readerId":80},
{"borrowedDate":"05/16/2023","dueDate":"05/23/2023","bookId":1,"readerId":44},
{"borrowedDate":"07/22/2023","dueDate":"07/29/2023","bookId":36,"readerId":20},
{"borrowedDate":"06/08/2023","dueDate":"06/15/2023","bookId":17,"readerId":83},
{"borrowedDate":"01/16/2023","dueDate":"08/23/2023","bookId":76,"readerId":62},
{"borrowedDate":"05/25/2023","dueDate":"06/01/2023","bookId":98,"readerId":79},
{"borrowedDate":"10/07/2023","dueDate":"10/14/2023","bookId":19,"readerId":97},
{"borrowedDate":"07/29/2023","dueDate":"08/05/2023","bookId":88,"readerId":3},
{"borrowedDate":"02/03/2023","dueDate":"07/23/2023","bookId":61,"readerId":23},
{"borrowedDate":"05/23/2023","dueDate":"09/09/2023","bookId":26,"readerId":98},
{"borrowedDate":"08/14/2023","dueDate":"08/21/2023","bookId":33,"readerId":64},
{"borrowedDate":"04/26/2023","dueDate":"06/21/2023","bookId":52,"readerId":92},
{"borrowedDate":"06/09/2023","dueDate":"06/16/2023","bookId":83,"readerId":21},
{"borrowedDate":"09/25/2023","dueDate":"10/02/2023","bookId":1,"readerId":71},
{"borrowedDate":"03/02/2023","dueDate":"05/20/2023","bookId":78,"readerId":39},
{"borrowedDate":"01/16/2023","dueDate":"10/15/2023","bookId":11,"readerId":62},
{"borrowedDate":"05/04/2023","dueDate":"05/11/2023","bookId":29,"readerId":100},
{"borrowedDate":"12/17/2022","dueDate":"08/03/2023","bookId":72,"readerId":83},
{"borrowedDate":"02/16/2023","dueDate":"07/06/2023","bookId":19,"readerId":34},
{"borrowedDate":"08/08/2023","dueDate":"08/26/2023","bookId":54,"readerId":7},
{"borrowedDate":"09/23/2023","dueDate":"09/30/2023","bookId":79,"readerId":59},
{"borrowedDate":"06/21/2023","dueDate":"06/28/2023","bookId":58,"readerId":67},
{"borrowedDate":"01/27/2023","dueDate":"05/22/2023","bookId":81,"readerId":79},
{"borrowedDate":"02/09/2023","dueDate":"02/16/2023","bookId":95,"readerId":71},
{"borrowedDate":"05/03/2023","dueDate":"05/10/2023","bookId":8,"readerId":96},
{"borrowedDate":"05/30/2023","dueDate":"08/10/2023","bookId":60,"readerId":57},
{"borrowedDate":"07/24/2023","dueDate":"07/31/2023","bookId":66,"readerId":55},
{"borrowedDate":"03/26/2023","dueDate":"06/19/2023","bookId":56,"readerId":78},
{"borrowedDate":"07/17/2023","dueDate":"07/24/2023","bookId":29,"readerId":81},
{"borrowedDate":"11/07/2022","dueDate":"12/19/2022","bookId":63,"readerId":2},
{"borrowedDate":"02/25/2023","dueDate":"03/12/2023","bookId":96,"readerId":94},
{"borrowedDate":"04/20/2023","dueDate":"04/27/2023","bookId":99,"readerId":8},
{"borrowedDate":"07/19/2023","dueDate":"07/26/2023","bookId":43,"readerId":52},
{"borrowedDate":"07/25/2023","dueDate":"08/04/2023","bookId":68,"readerId":61},
{"borrowedDate":"12/14/2022","dueDate":"01/04/2023","bookId":44,"readerId":29},
{"borrowedDate":"06/14/2023","dueDate":"06/21/2023","bookId":23,"readerId":58},
{"borrowedDate":"10/23/2022","dueDate":"02/21/2023","bookId":73,"readerId":2},
{"borrowedDate":"07/26/2023","dueDate":"08/02/2023","bookId":94,"readerId":38},
{"borrowedDate":"06/13/2023","dueDate":"09/10/2023","bookId":26,"readerId":40},
{"borrowedDate":"12/05/2022","dueDate":"12/08/2022","bookId":89,"readerId":72},
{"borrowedDate":"08/28/2023","dueDate":"09/04/2023","bookId":9,"readerId":94},
{"borrowedDate":"10/25/2022","dueDate":"03/26/2023","bookId":18,"readerId":86},
{"borrowedDate":"12/17/2022","dueDate":"12/24/2022","bookId":44,"readerId":77},
{"borrowedDate":"10/04/2023","dueDate":"10/11/2023","bookId":54,"readerId":31},
{"borrowedDate":"06/29/2023","dueDate":"07/02/2023","bookId":21,"readerId":1},
{"borrowedDate":"08/22/2023","dueDate":"08/29/2023","bookId":76,"readerId":72},
{"borrowedDate":"06/09/2023","dueDate":"06/16/2023","bookId":29,"readerId":52},
{"borrowedDate":"03/06/2023","dueDate":"03/13/2023","bookId":82,"readerId":67},
{"borrowedDate":"03/23/2023","dueDate":"03/30/2023","bookId":3,"readerId":15},
{"borrowedDate":"07/10/2023","dueDate":"07/17/2023","bookId":90,"readerId":50},
{"borrowedDate":"08/03/2023","dueDate":"09/05/2023","bookId":59,"readerId":39},
{"borrowedDate":"12/09/2022","dueDate":"05/27/2023","bookId":82,"readerId":24},
{"borrowedDate":"09/29/2023","dueDate":"10/06/2023","bookId":24,"readerId":69},
{"borrowedDate":"07/13/2023","dueDate":"07/20/2023","bookId":52,"readerId":2},
{"borrowedDate":"09/04/2023","dueDate":"09/11/2023","bookId":95,"readerId":29},
{"borrowedDate":"12/14/2022","dueDate":"01/23/2023","bookId":81,"readerId":23},
{"borrowedDate":"02/16/2023","dueDate":"06/25/2023","bookId":74,"readerId":92},
{"borrowedDate":"04/19/2023","dueDate":"06/19/2023","bookId":39,"readerId":24},
{"borrowedDate":"09/04/2023","dueDate":"09/30/2023","bookId":1,"readerId":62},
{"borrowedDate":"09/04/2023","dueDate":"09/11/2023","bookId":42,"readerId":13},
{"borrowedDate":"12/06/2022","dueDate":"02/26/2023","bookId":77,"readerId":14},
{"borrowedDate":"10/31/2022","dueDate":"05/31/2023","bookId":93,"readerId":69},
{"borrowedDate":"03/18/2023","dueDate":"05/02/2023","bookId":66,"readerId":7},
{"borrowedDate":"04/13/2023","dueDate":"08/27/2023","bookId":26,"readerId":12},
{"borrowedDate":"08/24/2023","dueDate":"08/31/2023","bookId":10,"readerId":49},
{"borrowedDate":"03/03/2023","dueDate":"03/10/2023","bookId":50,"readerId":77},
{"borrowedDate":"10/28/2022","dueDate":"11/04/2022","bookId":39,"readerId":89},
{"borrowedDate":"12/13/2022","dueDate":"12/14/2022","bookId":24,"readerId":88},
{"borrowedDate":"02/10/2023","dueDate":"10/01/2023","bookId":19,"readerId":11},
{"borrowedDate":"07/21/2023","dueDate":"07/28/2023","bookId":90,"readerId":10},
{"borrowedDate":"08/16/2023","dueDate":"08/23/2023","bookId":30,"readerId":8},
{"borrowedDate":"06/22/2023","dueDate":"06/29/2023","bookId":33,"readerId":32},
{"borrowedDate":"05/17/2023","dueDate":"10/16/2023","bookId":63,"readerId":79},
{"borrowedDate":"05/06/2023","dueDate":"08/11/2023","bookId":30,"readerId":13},
{"borrowedDate":"06/16/2023","dueDate":"06/23/2023","bookId":55,"readerId":68},
{"borrowedDate":"11/30/2022","dueDate":"02/14/2023","bookId":75,"readerId":76},
{"borrowedDate":"04/15/2023","dueDate":"04/22/2023","bookId":10,"readerId":99},
{"borrowedDate":"02/28/2023","dueDate":"03/30/2023","bookId":20,"readerId":13},
{"borrowedDate":"11/21/2022","dueDate":"02/06/2023","bookId":36,"readerId":26},
{"borrowedDate":"07/10/2023","dueDate":"07/17/2023","bookId":88,"readerId":84},
{"borrowedDate":"01/16/2023","dueDate":"07/03/2023","bookId":51,"readerId":67},
{"borrowedDate":"02/01/2023","dueDate":"07/06/2023","bookId":4,"readerId":99},
{"borrowedDate":"11/13/2022","dueDate":"07/16/2023","bookId":94,"readerId":84},
{"borrowedDate":"03/21/2023","dueDate":"10/16/2023","bookId":46,"readerId":21},
{"borrowedDate":"03/21/2023","dueDate":"03/28/2023","bookId":54,"readerId":42},
{"borrowedDate":"07/28/2023","dueDate":"08/22/2023","bookId":62,"readerId":95},
{"borrowedDate":"05/12/2023","dueDate":"05/19/2023","bookId":28,"readerId":78},
{"borrowedDate":"10/04/2023","dueDate":"10/11/2023","bookId":45,"readerId":97},
{"borrowedDate":"03/20/2023","dueDate":"03/27/2023","bookId":49,"readerId":68},
{"borrowedDate":"09/30/2023","dueDate":"10/10/2023","bookId":59,"readerId":35},
{"borrowedDate":"05/29/2023","dueDate":"06/05/2023","bookId":3,"readerId":67},
{"borrowedDate":"11/21/2022","dueDate":"01/23/2023","bookId":26,"readerId":24},
{"borrowedDate":"12/02/2022","dueDate":"01/23/2023","bookId":7,"readerId":57},
{"borrowedDate":"11/20/2022","dueDate":"03/17/2023","bookId":14,"readerId":8},
{"borrowedDate":"03/01/2023","dueDate":"03/08/2023","bookId":15,"readerId":24},
{"borrowedDate":"05/10/2023","dueDate":"05/19/2023","bookId":26,"readerId":98},
{"borrowedDate":"01/20/2023","dueDate":"01/27/2023","bookId":53,"readerId":64},
{"borrowedDate":"02/10/2023","dueDate":"03/12/2023","bookId":19,"readerId":46},
{"borrowedDate":"10/11/2023","dueDate":"10/18/2023","bookId":41,"readerId":31},
{"borrowedDate":"08/03/2023","dueDate":"08/10/2023","bookId":84,"readerId":10},
{"borrowedDate":"05/13/2023","dueDate":"05/21/2023","bookId":84,"readerId":3},
{"borrowedDate":"12/30/2022","dueDate":"01/06/2023","bookId":45,"readerId":61},
{"borrowedDate":"03/03/2023","dueDate":"03/04/2023","bookId":60,"readerId":70},
{"borrowedDate":"07/01/2023","dueDate":"07/08/2023","bookId":6,"readerId":72},
{"borrowedDate":"10/02/2023","dueDate":"10/09/2023","bookId":19,"readerId":9},
{"borrowedDate":"05/05/2023","dueDate":"05/13/2023","bookId":98,"readerId":29},
{"borrowedDate":"05/19/2023","dueDate":"05/26/2023","bookId":62,"readerId":68},
{"borrowedDate":"12/31/2022","dueDate":"02/21/2023","bookId":23,"readerId":10},
{"borrowedDate":"08/11/2023","dueDate":"08/18/2023","bookId":13,"readerId":66},
{"borrowedDate":"11/11/2022","dueDate":"06/01/2023","bookId":42,"readerId":16},
{"borrowedDate":"11/25/2022","dueDate":"06/04/2023","bookId":48,"readerId":67},
{"borrowedDate":"06/02/2023","dueDate":"07/11/2023","bookId":10,"readerId":21},
{"borrowedDate":"12/18/2022","dueDate":"01/02/2023","bookId":38,"readerId":7},
{"borrowedDate":"03/09/2023","dueDate":"03/16/2023","bookId":88,"readerId":86},
{"borrowedDate":"08/18/2023","dueDate":"08/25/2023","bookId":77,"readerId":57},
{"borrowedDate":"11/10/2022","dueDate":"06/28/2023","bookId":58,"readerId":57},
{"borrowedDate":"02/25/2023","dueDate":"09/16/2023","bookId":70,"readerId":27},
{"borrowedDate":"08/26/2023","dueDate":"09/02/2023","bookId":4,"readerId":52},
{"borrowedDate":"03/01/2023","dueDate":"08/06/2023","bookId":15,"readerId":84},
{"borrowedDate":"02/25/2023","dueDate":"03/04/2023","bookId":50,"readerId":9},
{"borrowedDate":"10/25/2022","dueDate":"03/31/2023","bookId":90,"readerId":83},
{"borrowedDate":"05/06/2023","dueDate":"08/24/2023","bookId":16,"readerId":18},
{"borrowedDate":"03/29/2023","dueDate":"10/04/2023","bookId":60,"readerId":99},
{"borrowedDate":"01/20/2023","dueDate":"04/04/2023","bookId":25,"readerId":22}]